^C:\USERS\XENITH\DOCUMENTS\COLLEGE\SP12\COP2001\CHAPTER 12\DEBUG\CHAPTER 12.EXE.EMBED.MANIFEST.RES|C:\USERS\XENITH\DOCUMENTS\COLLEGE\SP12\COP2001\CHAPTER 12\DEBUG\LECTURE12.OBJ
/ERRORREPORT:PROMPT /OUT:"C:\Users\Xenith\Documents\College\SP12\COP2001\Chapter 12\Debug\Chapter 12.exe" /INCREMENTAL /NOLOGO kernel32.lib user32.lib gdi32.lib winspool.lib comdlg32.lib advapi32.lib shell32.lib ole32.lib oleaut32.lib uuid.lib odbc32.lib odbccp32.lib /MANIFEST /ManifestFile:"Debug\Chapter 12.exe.intermediate.manifest" /MANIFESTUAC:"level='asInvoker' uiAccess='false'" /DEBUG /PDB:"C:\Users\Xenith\Documents\College\SP12\COP2001\Chapter 12\Debug\Chapter 12.pdb" /SUBSYSTEM:CONSOLE /TLBID:1 /DYNAMICBASE /NXCOMPAT /IMPLIB:"C:\Users\Xenith\Documents\College\SP12\COP2001\Chapter 12\Debug\Chapter 12.lib" /MACHINE:X86 "Debug\Chapter 12.exe.embed.manifest.res"
Debug\lecture12.obj
